<?xml version="1.0" encoding="utf-8"?>
<!-- Generator: Adobe Illustrator 16.0.0, SVG Export Plug-In . SVG Version: 6.00 Build 0)  -->
<!DOCTYPE svg PUBLIC "-//W3C//DTD SVG 1.1//EN" "http://www.w3.org/Graphics/SVG/1.1/DTD/svg11.dtd">
<svg version="1.1" id="Layer_1" xmlns="http://www.w3.org/2000/svg" xmlns:xlink="http://www.w3.org/1999/xlink" x="0px" y="0px"
	 width="381.95264px" height="196.51465px" viewBox="0 0 381.95264 196.51465" enable-background="new 0 0 381.95264 196.51465"
	 xml:space="preserve">
<g>
	<path d="M67.31152,94.51465l-9.48926-27.70898H22.26855l-9.74316,27.70898H0l32.89648-92.2373H48.0791l32.39063,92.2373H67.31152z
		 M40.36133,14.92969L25.17773,56.93652h29.35449L40.36133,14.92969z"/>
	<path d="M153.85693,94.51465c-1.64453-3.7959-2.7832-9.3623-2.65625-15.05664l0.12598-8.22363
		c0.12695-11.3877-4.80762-16.44824-15.18262-16.44824h-30.36621v39.72852H94.01025V2.27734h42.5127
		c18.09375,0,28.08887,8.73047,28.08887,24.67285c0,10.50195-4.1748,16.9541-14.55078,22.01563
		c9.99609,4.30078,12.27344,8.85645,12.52637,24.04004c0.12695,12.27246,1.13867,15.5625,5.56738,18.59863v2.91016H153.85693z
		 M134.24561,12.65234h-28.46777v31.75781h28.46777c12.52637,0,18.09375-4.93457,18.09375-15.81543
		C152.33936,18.21973,147.40479,12.65234,134.24561,12.65234z"/>
	<path d="M219.3999,96.79199c-27.07617,0-41.62695-20.37012-41.62695-47.32031S191.94385,0,219.90576,0
		c20.24414,0,31.88477,10.62793,35.55371,30.87207h-12.01953C240.52979,16.82715,232.93799,10.375,218.51416,10.375
		c-17.83984,0-28.97461,15.30957-28.97461,38.96973c0,23.02832,11.64063,37.07227,29.9873,37.07227
		c15.5625,0,22.90039-8.09766,25.68457-25.55762h12.14648C254.57373,84.89844,241.92139,96.79199,219.3999,96.79199z"/>
	<path d="M331.50439,94.51465V52.50781h-47.44727v42.00684h-11.7666V2.27734h11.7666v39.85547h47.44727V2.27734h11.7666v92.2373
		H331.50439z"/>
	<path d="M197.47314,196.51465v-92.2373h11.76758v92.2373H197.47314z"/>
	<path d="M269.59521,196.51465h-12.65332l-33.14941-92.2373h12.65234l27.07617,78.06641l25.55859-78.06641h12.52637
		L269.59521,196.51465z"/>
	<path d="M315.77979,196.51465v-92.2373h63.89551v10.375h-52.12891v29.48047h50.23047v10.375h-50.23047v31.63184h54.40625v10.375
		H315.77979z"/>
</g>
</svg>
